-- Merging decision tree log ---
manifest
ADDED from D:\Eavesdrop\app\src\main\AndroidManifest.xml:2:1-36:12
INJECTED from D:\Eavesdrop\app\src\main\AndroidManifest.xml:2:1-36:12
INJECTED from D:\Eavesdrop\app\src\main\AndroidManifest.xml:2:1-36:12
INJECTED from D:\Eavesdrop\app\src\main\AndroidManifest.xml:2:1-36:12
MERGED from [com.google.firebase:firebase-core:11.8.0] C:\Users\Subham Dhakal\.gradle\caches\transforms-1\files-1.1\firebase-core-11.8.0.aar\8adf313566db0775eb1618747952f115\AndroidManifest.xml:2:1-6:12
MERGED from [com.android.support:design:27.1.1] C:\Users\Subham Dhakal\.gradle\caches\transforms-1\files-1.1\design-27.1.1.aar\c79e1de620464fc871eb953639322350\AndroidManifest.xml:17:1-22:12
MERGED from [com.android.support:appcompat-v7:27.1.1] C:\Users\Subham Dhakal\.gradle\caches\transforms-1\files-1.1\appcompat-v7-27.1.1.aar\7875cf381aa70cb1e097a1f356fef025\AndroidManifest.xml:17:1-22:12
MERGED from [com.android.support.constraint:constraint-layout:1.1.0] C:\Users\Subham Dhakal\.gradle\caches\transforms-1\files-1.1\constraint-layout-1.1.0.aar\dade14e1d404ddae90bf395e02b632f7\AndroidManifest.xml:2:1-11:12
MERGED from [com.google.firebase:firebase-database:11.8.0] C:\Users\Subham Dhakal\.gradle\caches\transforms-1\files-1.1\firebase-database-11.8.0.aar\b9958fadb11db56abf961a01a2579d6a\AndroidManifest.xml:2:1-8:12
MERGED from [com.google.firebase:firebase-analytics:11.8.0] C:\Users\Subham Dhakal\.gradle\caches\transforms-1\files-1.1\firebase-analytics-11.8.0.aar\7238fdbab610633a3769941525f02b6c\AndroidManifest.xml:17:1-54:12
MERGED from [com.google.firebase:firebase-database-connection:11.8.0] C:\Users\Subham Dhakal\.gradle\caches\transforms-1\files-1.1\firebase-database-connection-11.8.0.aar\39fcac69a60d8f81c9a133feac08e342\AndroidManifest.xml:2:1-8:12
MERGED from [com.google.firebase:firebase-analytics-impl:11.8.0] C:\Users\Subham Dhakal\.gradle\caches\transforms-1\files-1.1\firebase-analytics-impl-11.8.0.aar\421fbde92c0ce7ba413151c034924b58\AndroidManifest.xml:17:1-40:12
MERGED from [com.google.firebase:firebase-iid:11.8.0] C:\Users\Subham Dhakal\.gradle\caches\transforms-1\files-1.1\firebase-iid-11.8.0.aar\2d6c944db1477ec781a36fc6f7298f7f\AndroidManifest.xml:17:1-59:12
MERGED from [com.google.firebase:firebase-common:11.8.0] C:\Users\Subham Dhakal\.gradle\caches\transforms-1\files-1.1\firebase-common-11.8.0.aar\27fa6a61d7a8d55490168f0173cd1300\AndroidManifest.xml:2:1-15:12
MERGED from [com.google.android.gms:play-services-tasks:11.8.0] C:\Users\Subham Dhakal\.gradle\caches\transforms-1\files-1.1\play-services-tasks-11.8.0.aar\797f9df843bf6cddeacd52fce3b2828c\AndroidManifest.xml:2:1-9:12
MERGED from [com.google.android.gms:play-services-basement:11.8.0] C:\Users\Subham Dhakal\.gradle\caches\transforms-1\files-1.1\play-services-basement-11.8.0.aar\5694aacca733b9456abd60b2ceebcf0f\AndroidManifest.xml:17:1-28:12
MERGED from [com.android.support:support-v4:27.1.1] C:\Users\Subham Dhakal\.gradle\caches\transforms-1\files-1.1\support-v4-27.1.1.aar\399e1f97e3b24bb2aded81d45e940d01\AndroidManifest.xml:17:1-22:12
MERGED from [com.android.support:support-fragment:27.1.1] C:\Users\Subham Dhakal\.gradle\caches\transforms-1\files-1.1\support-fragment-27.1.1.aar\10b726299c5861573822c63f4475a5a5\AndroidManifest.xml:17:1-22:12
MERGED from [com.android.support:animated-vector-drawable:27.1.1] C:\Users\Subham Dhakal\.gradle\caches\transforms-1\files-1.1\animated-vector-drawable-27.1.1.aar\2badb4070af0beb61090da230324d94d\AndroidManifest.xml:17:1-22:12
MERGED from [com.android.support:recyclerview-v7:27.1.1] C:\Users\Subham Dhakal\.gradle\caches\transforms-1\files-1.1\recyclerview-v7-27.1.1.aar\9e8e38f130ccdb0308c8785f1a657e46\AndroidManifest.xml:17:1-22:12
MERGED from [com.android.support:support-core-ui:27.1.1] C:\Users\Subham Dhakal\.gradle\caches\transforms-1\files-1.1\support-core-ui-27.1.1.aar\39615d354953e793f3ca58c575f43949\AndroidManifest.xml:17:1-22:12
MERGED from [com.android.support:support-core-utils:27.1.1] C:\Users\Subham Dhakal\.gradle\caches\transforms-1\files-1.1\support-core-utils-27.1.1.aar\9175db217ee71f649d0a98b0b51c6cbe\AndroidManifest.xml:17:1-22:12
MERGED from [com.android.support:support-vector-drawable:27.1.1] C:\Users\Subham Dhakal\.gradle\caches\transforms-1\files-1.1\support-vector-drawable-27.1.1.aar\8673684b089c74db1373d1e75b9932f0\AndroidManifest.xml:17:1-22:12
MERGED from [com.android.support:transition:27.1.1] C:\Users\Subham Dhakal\.gradle\caches\transforms-1\files-1.1\transition-27.1.1.aar\652bd1796f48d9309d37584140206a84\AndroidManifest.xml:17:1-22:12
MERGED from [com.android.support:support-media-compat:27.1.1] C:\Users\Subham Dhakal\.gradle\caches\transforms-1\files-1.1\support-media-compat-27.1.1.aar\b4ddbeeb38bc93b66f705e38f5d7e1f1\AndroidManifest.xml:17:1-22:12
MERGED from [com.android.support:support-compat:27.1.1] C:\Users\Subham Dhakal\.gradle\caches\transforms-1\files-1.1\support-compat-27.1.1.aar\0504d27c64573f326bf8442beb74712a\AndroidManifest.xml:17:1-22:12
MERGED from [com.google.firebase:firebase-database-license:11.8.0] C:\Users\Subham Dhakal\.gradle\caches\transforms-1\files-1.1\firebase-database-license-11.8.0.aar\34c565574449e8befc6fb6e5b1b48507\AndroidManifest.xml:2:1-6:12
MERGED from [com.google.firebase:firebase-analytics-license:11.8.0] C:\Users\Subham Dhakal\.gradle\caches\transforms-1\files-1.1\firebase-analytics-license-11.8.0.aar\8cfdc564edf0e8df2d46f8cfa6e1fe8f\AndroidManifest.xml:2:1-6:12
MERGED from [android.arch.lifecycle:livedata-core:1.1.0] C:\Users\Subham Dhakal\.gradle\caches\transforms-1\files-1.1\livedata-core-1.1.0.aar\f9c02c63dc5559fd160894317a41cae2\AndroidManifest.xml:17:1-22:12
MERGED from [android.arch.lifecycle:viewmodel:1.1.0] C:\Users\Subham Dhakal\.gradle\caches\transforms-1\files-1.1\viewmodel-1.1.0.aar\a226a9fc001c5aef238b4795b7a2701f\AndroidManifest.xml:17:1-22:12
MERGED from [com.google.firebase:firebase-database-connection-license:11.8.0] C:\Users\Subham Dhakal\.gradle\caches\transforms-1\files-1.1\firebase-database-connection-license-11.8.0.aar\664ba7c7f04c2c741b9f96225a7ce82d\AndroidManifest.xml:2:1-6:12
MERGED from [com.google.android.gms:play-services-basement-license:11.8.0] C:\Users\Subham Dhakal\.gradle\caches\transforms-1\files-1.1\play-services-basement-license-11.8.0.aar\4a1b64a8deb471725f2dafc382a15849\AndroidManifest.xml:2:1-6:12
MERGED from [com.google.firebase:firebase-common-license:11.8.0] C:\Users\Subham Dhakal\.gradle\caches\transforms-1\files-1.1\firebase-common-license-11.8.0.aar\e7c3dd48ef1fced372d78821ce0908c0\AndroidManifest.xml:2:1-6:12
MERGED from [com.google.android.gms:play-services-tasks-license:11.8.0] C:\Users\Subham Dhakal\.gradle\caches\transforms-1\files-1.1\play-services-tasks-license-11.8.0.aar\5713986533740705b1054783388f3463\AndroidManifest.xml:2:1-6:12
MERGED from [com.google.firebase:firebase-analytics-impl-license:11.8.0] C:\Users\Subham Dhakal\.gradle\caches\transforms-1\files-1.1\firebase-analytics-impl-license-11.8.0.aar\9c9fa5fd7cfb440ecc2dd1eafed5d301\AndroidManifest.xml:2:1-6:12
MERGED from [android.arch.lifecycle:runtime:1.1.0] C:\Users\Subham Dhakal\.gradle\caches\transforms-1\files-1.1\runtime-1.1.0.aar\ab623993aef99a2b763f8e1c614511ae\AndroidManifest.xml:17:1-22:12
MERGED from [android.arch.core:runtime:1.1.0] C:\Users\Subham Dhakal\.gradle\caches\transforms-1\files-1.1\runtime-1.1.0.aar\9b33067b06c41d4ca2d1c2b5f7829233\AndroidManifest.xml:17:1-22:12
MERGED from [com.google.firebase:firebase-iid-license:11.8.0] C:\Users\Subham Dhakal\.gradle\caches\transforms-1\files-1.1\firebase-iid-license-11.8.0.aar\e05eb780b86ac56838b728c7709444a8\AndroidManifest.xml:2:1-6:12
INJECTED from D:\Eavesdrop\app\src\main\AndroidManifest.xml:2:1-36:12
INJECTED from D:\Eavesdrop\app\src\main\AndroidManifest.xml:2:1-36:12
INJECTED from D:\Eavesdrop\app\src\main\AndroidManifest.xml:2:1-36:12
	package
		ADDED from D:\Eavesdrop\app\src\main\AndroidManifest.xml:4:5-49
		INJECTED from D:\Eavesdrop\app\src\main\AndroidManifest.xml
		INJECTED from D:\Eavesdrop\app\src\main\AndroidManifest.xml
	android:versionName
		INJECTED from D:\Eavesdrop\app\src\main\AndroidManifest.xml
		ADDED from D:\Eavesdrop\app\src\main\AndroidManifest.xml:2:1-36:12
		INJECTED from D:\Eavesdrop\app\src\main\AndroidManifest.xml
	xmlns:tools
		ADDED from D:\Eavesdrop\app\src\main\AndroidManifest.xml:3:5-51
	android:versionCode
		INJECTED from D:\Eavesdrop\app\src\main\AndroidManifest.xml
		ADDED from D:\Eavesdrop\app\src\main\AndroidManifest.xml:2:1-36:12
		INJECTED from D:\Eavesdrop\app\src\main\AndroidManifest.xml
	xmlns:android
		ADDED from D:\Eavesdrop\app\src\main\AndroidManifest.xml:2:11-69
uses-permission#android.permission.WRITE_EXTERNAL_STORAGE
ADDED from D:\Eavesdrop\app\src\main\AndroidManifest.xml:6:5-81
	android:name
		ADDED from D:\Eavesdrop\app\src\main\AndroidManifest.xml:6:22-78
uses-permission#android.permission.RECORD_AUDIO
ADDED from D:\Eavesdrop\app\src\main\AndroidManifest.xml:7:5-71
	android:name
		ADDED from D:\Eavesdrop\app\src\main\AndroidManifest.xml:7:22-68
uses-permission#android.permission.INTERNET
ADDED from D:\Eavesdrop\app\src\main\AndroidManifest.xml:8:5-67
MERGED from [com.google.firebase:firebase-analytics:11.8.0] C:\Users\Subham Dhakal\.gradle\caches\transforms-1\files-1.1\firebase-analytics-11.8.0.aar\7238fdbab610633a3769941525f02b6c\AndroidManifest.xml:23:5-67
MERGED from [com.google.firebase:firebase-analytics:11.8.0] C:\Users\Subham Dhakal\.gradle\caches\transforms-1\files-1.1\firebase-analytics-11.8.0.aar\7238fdbab610633a3769941525f02b6c\AndroidManifest.xml:23:5-67
MERGED from [com.google.firebase:firebase-analytics-impl:11.8.0] C:\Users\Subham Dhakal\.gradle\caches\transforms-1\files-1.1\firebase-analytics-impl-11.8.0.aar\421fbde92c0ce7ba413151c034924b58\AndroidManifest.xml:23:5-67
MERGED from [com.google.firebase:firebase-analytics-impl:11.8.0] C:\Users\Subham Dhakal\.gradle\caches\transforms-1\files-1.1\firebase-analytics-impl-11.8.0.aar\421fbde92c0ce7ba413151c034924b58\AndroidManifest.xml:23:5-67
MERGED from [com.google.firebase:firebase-iid:11.8.0] C:\Users\Subham Dhakal\.gradle\caches\transforms-1\files-1.1\firebase-iid-11.8.0.aar\2d6c944db1477ec781a36fc6f7298f7f\AndroidManifest.xml:23:5-67
MERGED from [com.google.firebase:firebase-iid:11.8.0] C:\Users\Subham Dhakal\.gradle\caches\transforms-1\files-1.1\firebase-iid-11.8.0.aar\2d6c944db1477ec781a36fc6f7298f7f\AndroidManifest.xml:23:5-67
	android:name
		ADDED from D:\Eavesdrop\app\src\main\AndroidManifest.xml:8:22-64
application
ADDED from D:\Eavesdrop\app\src\main\AndroidManifest.xml:10:5-34:19
MERGED from [com.google.firebase:firebase-core:11.8.0] C:\Users\Subham Dhakal\.gradle\caches\transforms-1\files-1.1\firebase-core-11.8.0.aar\8adf313566db0775eb1618747952f115\AndroidManifest.xml:5:5-20
MERGED from [com.google.firebase:firebase-core:11.8.0] C:\Users\Subham Dhakal\.gradle\caches\transforms-1\files-1.1\firebase-core-11.8.0.aar\8adf313566db0775eb1618747952f115\AndroidManifest.xml:5:5-20
MERGED from [com.android.support.constraint:constraint-layout:1.1.0] C:\Users\Subham Dhakal\.gradle\caches\transforms-1\files-1.1\constraint-layout-1.1.0.aar\dade14e1d404ddae90bf395e02b632f7\AndroidManifest.xml:9:5-20
MERGED from [com.android.support.constraint:constraint-layout:1.1.0] C:\Users\Subham Dhakal\.gradle\caches\transforms-1\files-1.1\constraint-layout-1.1.0.aar\dade14e1d404ddae90bf395e02b632f7\AndroidManifest.xml:9:5-20
MERGED from [com.google.firebase:firebase-analytics:11.8.0] C:\Users\Subham Dhakal\.gradle\caches\transforms-1\files-1.1\firebase-analytics-11.8.0.aar\7238fdbab610633a3769941525f02b6c\AndroidManifest.xml:27:5-52:19
MERGED from [com.google.firebase:firebase-analytics:11.8.0] C:\Users\Subham Dhakal\.gradle\caches\transforms-1\files-1.1\firebase-analytics-11.8.0.aar\7238fdbab610633a3769941525f02b6c\AndroidManifest.xml:27:5-52:19
MERGED from [com.google.firebase:firebase-analytics-impl:11.8.0] C:\Users\Subham Dhakal\.gradle\caches\transforms-1\files-1.1\firebase-analytics-impl-11.8.0.aar\421fbde92c0ce7ba413151c034924b58\AndroidManifest.xml:27:5-38:19
MERGED from [com.google.firebase:firebase-analytics-impl:11.8.0] C:\Users\Subham Dhakal\.gradle\caches\transforms-1\files-1.1\firebase-analytics-impl-11.8.0.aar\421fbde92c0ce7ba413151c034924b58\AndroidManifest.xml:27:5-38:19
MERGED from [com.google.firebase:firebase-iid:11.8.0] C:\Users\Subham Dhakal\.gradle\caches\transforms-1\files-1.1\firebase-iid-11.8.0.aar\2d6c944db1477ec781a36fc6f7298f7f\AndroidManifest.xml:34:5-57:19
MERGED from [com.google.firebase:firebase-iid:11.8.0] C:\Users\Subham Dhakal\.gradle\caches\transforms-1\files-1.1\firebase-iid-11.8.0.aar\2d6c944db1477ec781a36fc6f7298f7f\AndroidManifest.xml:34:5-57:19
MERGED from [com.google.firebase:firebase-common:11.8.0] C:\Users\Subham Dhakal\.gradle\caches\transforms-1\files-1.1\firebase-common-11.8.0.aar\27fa6a61d7a8d55490168f0173cd1300\AndroidManifest.xml:7:5-13:19
MERGED from [com.google.firebase:firebase-common:11.8.0] C:\Users\Subham Dhakal\.gradle\caches\transforms-1\files-1.1\firebase-common-11.8.0.aar\27fa6a61d7a8d55490168f0173cd1300\AndroidManifest.xml:7:5-13:19
MERGED from [com.google.android.gms:play-services-tasks:11.8.0] C:\Users\Subham Dhakal\.gradle\caches\transforms-1\files-1.1\play-services-tasks-11.8.0.aar\797f9df843bf6cddeacd52fce3b2828c\AndroidManifest.xml:7:5-20
MERGED from [com.google.android.gms:play-services-tasks:11.8.0] C:\Users\Subham Dhakal\.gradle\caches\transforms-1\files-1.1\play-services-tasks-11.8.0.aar\797f9df843bf6cddeacd52fce3b2828c\AndroidManifest.xml:7:5-20
MERGED from [com.google.android.gms:play-services-basement:11.8.0] C:\Users\Subham Dhakal\.gradle\caches\transforms-1\files-1.1\play-services-basement-11.8.0.aar\5694aacca733b9456abd60b2ceebcf0f\AndroidManifest.xml:22:5-26:19
MERGED from [com.google.android.gms:play-services-basement:11.8.0] C:\Users\Subham Dhakal\.gradle\caches\transforms-1\files-1.1\play-services-basement-11.8.0.aar\5694aacca733b9456abd60b2ceebcf0f\AndroidManifest.xml:22:5-26:19
MERGED from [com.google.firebase:firebase-database-license:11.8.0] C:\Users\Subham Dhakal\.gradle\caches\transforms-1\files-1.1\firebase-database-license-11.8.0.aar\34c565574449e8befc6fb6e5b1b48507\AndroidManifest.xml:5:5-20
MERGED from [com.google.firebase:firebase-database-license:11.8.0] C:\Users\Subham Dhakal\.gradle\caches\transforms-1\files-1.1\firebase-database-license-11.8.0.aar\34c565574449e8befc6fb6e5b1b48507\AndroidManifest.xml:5:5-20
MERGED from [com.google.firebase:firebase-analytics-license:11.8.0] C:\Users\Subham Dhakal\.gradle\caches\transforms-1\files-1.1\firebase-analytics-license-11.8.0.aar\8cfdc564edf0e8df2d46f8cfa6e1fe8f\AndroidManifest.xml:5:5-20
MERGED from [com.google.firebase:firebase-analytics-license:11.8.0] C:\Users\Subham Dhakal\.gradle\caches\transforms-1\files-1.1\firebase-analytics-license-11.8.0.aar\8cfdc564edf0e8df2d46f8cfa6e1fe8f\AndroidManifest.xml:5:5-20
MERGED from [com.google.firebase:firebase-database-connection-license:11.8.0] C:\Users\Subham Dhakal\.gradle\caches\transforms-1\files-1.1\firebase-database-connection-license-11.8.0.aar\664ba7c7f04c2c741b9f96225a7ce82d\AndroidManifest.xml:5:5-20
MERGED from [com.google.firebase:firebase-database-connection-license:11.8.0] C:\Users\Subham Dhakal\.gradle\caches\transforms-1\files-1.1\firebase-database-connection-license-11.8.0.aar\664ba7c7f04c2c741b9f96225a7ce82d\AndroidManifest.xml:5:5-20
MERGED from [com.google.android.gms:play-services-basement-license:11.8.0] C:\Users\Subham Dhakal\.gradle\caches\transforms-1\files-1.1\play-services-basement-license-11.8.0.aar\4a1b64a8deb471725f2dafc382a15849\AndroidManifest.xml:5:5-20
MERGED from [com.google.android.gms:play-services-basement-license:11.8.0] C:\Users\Subham Dhakal\.gradle\caches\transforms-1\files-1.1\play-services-basement-license-11.8.0.aar\4a1b64a8deb471725f2dafc382a15849\AndroidManifest.xml:5:5-20
MERGED from [com.google.firebase:firebase-common-license:11.8.0] C:\Users\Subham Dhakal\.gradle\caches\transforms-1\files-1.1\firebase-common-license-11.8.0.aar\e7c3dd48ef1fced372d78821ce0908c0\AndroidManifest.xml:5:5-20
MERGED from [com.google.firebase:firebase-common-license:11.8.0] C:\Users\Subham Dhakal\.gradle\caches\transforms-1\files-1.1\firebase-common-license-11.8.0.aar\e7c3dd48ef1fced372d78821ce0908c0\AndroidManifest.xml:5:5-20
MERGED from [com.google.android.gms:play-services-tasks-license:11.8.0] C:\Users\Subham Dhakal\.gradle\caches\transforms-1\files-1.1\play-services-tasks-license-11.8.0.aar\5713986533740705b1054783388f3463\AndroidManifest.xml:5:5-20
MERGED from [com.google.android.gms:play-services-tasks-license:11.8.0] C:\Users\Subham Dhakal\.gradle\caches\transforms-1\files-1.1\play-services-tasks-license-11.8.0.aar\5713986533740705b1054783388f3463\AndroidManifest.xml:5:5-20
MERGED from [com.google.firebase:firebase-analytics-impl-license:11.8.0] C:\Users\Subham Dhakal\.gradle\caches\transforms-1\files-1.1\firebase-analytics-impl-license-11.8.0.aar\9c9fa5fd7cfb440ecc2dd1eafed5d301\AndroidManifest.xml:5:5-20
MERGED from [com.google.firebase:firebase-analytics-impl-license:11.8.0] C:\Users\Subham Dhakal\.gradle\caches\transforms-1\files-1.1\firebase-analytics-impl-license-11.8.0.aar\9c9fa5fd7cfb440ecc2dd1eafed5d301\AndroidManifest.xml:5:5-20
MERGED from [com.google.firebase:firebase-iid-license:11.8.0] C:\Users\Subham Dhakal\.gradle\caches\transforms-1\files-1.1\firebase-iid-license-11.8.0.aar\e05eb780b86ac56838b728c7709444a8\AndroidManifest.xml:5:5-20
MERGED from [com.google.firebase:firebase-iid-license:11.8.0] C:\Users\Subham Dhakal\.gradle\caches\transforms-1\files-1.1\firebase-iid-license-11.8.0.aar\e05eb780b86ac56838b728c7709444a8\AndroidManifest.xml:5:5-20
	android:supportsRtl
		ADDED from D:\Eavesdrop\app\src\main\AndroidManifest.xml:15:9-35
	android:label
		ADDED from D:\Eavesdrop\app\src\main\AndroidManifest.xml:13:9-31
	android:roundIcon
		ADDED from D:\Eavesdrop\app\src\main\AndroidManifest.xml:14:9-50
	android:icon
		ADDED from D:\Eavesdrop\app\src\main\AndroidManifest.xml:12:9-43
	android:allowBackup
		ADDED from D:\Eavesdrop\app\src\main\AndroidManifest.xml:11:9-35
	android:theme
		ADDED from D:\Eavesdrop\app\src\main\AndroidManifest.xml:16:9-40
activity#com.example.subhamdhakal.eavesdrop.ui.activity.activity_first
ADDED from D:\Eavesdrop\app\src\main\AndroidManifest.xml:19:9-64
	android:name
		ADDED from D:\Eavesdrop\app\src\main\AndroidManifest.xml:19:19-61
activity#com.example.subhamdhakal.eavesdrop.ui.activity.MainActivity
ADDED from D:\Eavesdrop\app\src\main\AndroidManifest.xml:20:9-62
	android:name
		ADDED from D:\Eavesdrop\app\src\main\AndroidManifest.xml:20:19-59
activity#com.example.subhamdhakal.eavesdrop.ui.activity.fetchsong
ADDED from D:\Eavesdrop\app\src\main\AndroidManifest.xml:21:9-59
	android:name
		ADDED from D:\Eavesdrop\app\src\main\AndroidManifest.xml:21:19-56
activity#com.example.subhamdhakal.eavesdrop.ui.activity.LoginActivity
ADDED from D:\Eavesdrop\app\src\main\AndroidManifest.xml:22:9-30:20
	android:label
		ADDED from D:\Eavesdrop\app\src\main\AndroidManifest.xml:24:13-35
	android:name
		ADDED from D:\Eavesdrop\app\src\main\AndroidManifest.xml:23:13-54
intent-filter#action:name:android.intent.action.MAIN+category:name:android.intent.category.LAUNCHER
ADDED from D:\Eavesdrop\app\src\main\AndroidManifest.xml:25:13-29:29
action#android.intent.action.MAIN
ADDED from D:\Eavesdrop\app\src\main\AndroidManifest.xml:26:17-69
	android:name
		ADDED from D:\Eavesdrop\app\src\main\AndroidManifest.xml:26:25-66
category#android.intent.category.LAUNCHER
ADDED from D:\Eavesdrop\app\src\main\AndroidManifest.xml:28:17-77
	android:name
		ADDED from D:\Eavesdrop\app\src\main\AndroidManifest.xml:28:27-74
activity#com.example.subhamdhakal.eavesdrop.ui.activity.StoreSong
ADDED from D:\Eavesdrop\app\src\main\AndroidManifest.xml:31:9-59
	android:name
		ADDED from D:\Eavesdrop\app\src\main\AndroidManifest.xml:31:19-56
activity#com.example.subhamdhakal.eavesdrop.ui.activity.no_match_found
ADDED from D:\Eavesdrop\app\src\main\AndroidManifest.xml:32:9-64
	android:name
		ADDED from D:\Eavesdrop\app\src\main\AndroidManifest.xml:32:19-61
activity#com.example.subhamdhakal.eavesdrop.ui.activity.AddThatSong
ADDED from D:\Eavesdrop\app\src\main\AndroidManifest.xml:33:9-70
	android:name
		ADDED from D:\Eavesdrop\app\src\main\AndroidManifest.xml:33:19-58
uses-sdk
INJECTED from D:\Eavesdrop\app\src\main\AndroidManifest.xml reason: use-sdk injection requested
INJECTED from D:\Eavesdrop\app\src\main\AndroidManifest.xml
INJECTED from D:\Eavesdrop\app\src\main\AndroidManifest.xml
MERGED from [com.google.firebase:firebase-core:11.8.0] C:\Users\Subham Dhakal\.gradle\caches\transforms-1\files-1.1\firebase-core-11.8.0.aar\8adf313566db0775eb1618747952f115\AndroidManifest.xml:4:5-43
MERGED from [com.google.firebase:firebase-core:11.8.0] C:\Users\Subham Dhakal\.gradle\caches\transforms-1\files-1.1\firebase-core-11.8.0.aar\8adf313566db0775eb1618747952f115\AndroidManifest.xml:4:5-43
MERGED from [com.android.support:design:27.1.1] C:\Users\Subham Dhakal\.gradle\caches\transforms-1\files-1.1\design-27.1.1.aar\c79e1de620464fc871eb953639322350\AndroidManifest.xml:20:5-44
MERGED from [com.android.support:design:27.1.1] C:\Users\Subham Dhakal\.gradle\caches\transforms-1\files-1.1\design-27.1.1.aar\c79e1de620464fc871eb953639322350\AndroidManifest.xml:20:5-44
MERGED from [com.android.support:appcompat-v7:27.1.1] C:\Users\Subham Dhakal\.gradle\caches\transforms-1\files-1.1\appcompat-v7-27.1.1.aar\7875cf381aa70cb1e097a1f356fef025\AndroidManifest.xml:20:5-44
MERGED from [com.android.support:appcompat-v7:27.1.1] C:\Users\Subham Dhakal\.gradle\caches\transforms-1\files-1.1\appcompat-v7-27.1.1.aar\7875cf381aa70cb1e097a1f356fef025\AndroidManifest.xml:20:5-44
MERGED from [com.android.support.constraint:constraint-layout:1.1.0] C:\Users\Subham Dhakal\.gradle\caches\transforms-1\files-1.1\constraint-layout-1.1.0.aar\dade14e1d404ddae90bf395e02b632f7\AndroidManifest.xml:5:5-7:41
MERGED from [com.android.support.constraint:constraint-layout:1.1.0] C:\Users\Subham Dhakal\.gradle\caches\transforms-1\files-1.1\constraint-layout-1.1.0.aar\dade14e1d404ddae90bf395e02b632f7\AndroidManifest.xml:5:5-7:41
MERGED from [com.google.firebase:firebase-database:11.8.0] C:\Users\Subham Dhakal\.gradle\caches\transforms-1\files-1.1\firebase-database-11.8.0.aar\b9958fadb11db56abf961a01a2579d6a\AndroidManifest.xml:6:5-44
MERGED from [com.google.firebase:firebase-database:11.8.0] C:\Users\Subham Dhakal\.gradle\caches\transforms-1\files-1.1\firebase-database-11.8.0.aar\b9958fadb11db56abf961a01a2579d6a\AndroidManifest.xml:6:5-44
MERGED from [com.google.firebase:firebase-analytics:11.8.0] C:\Users\Subham Dhakal\.gradle\caches\transforms-1\files-1.1\firebase-analytics-11.8.0.aar\7238fdbab610633a3769941525f02b6c\AndroidManifest.xml:20:5-44
MERGED from [com.google.firebase:firebase-analytics:11.8.0] C:\Users\Subham Dhakal\.gradle\caches\transforms-1\files-1.1\firebase-analytics-11.8.0.aar\7238fdbab610633a3769941525f02b6c\AndroidManifest.xml:20:5-44
MERGED from [com.google.firebase:firebase-database-connection:11.8.0] C:\Users\Subham Dhakal\.gradle\caches\transforms-1\files-1.1\firebase-database-connection-11.8.0.aar\39fcac69a60d8f81c9a133feac08e342\AndroidManifest.xml:6:5-44
MERGED from [com.google.firebase:firebase-database-connection:11.8.0] C:\Users\Subham Dhakal\.gradle\caches\transforms-1\files-1.1\firebase-database-connection-11.8.0.aar\39fcac69a60d8f81c9a133feac08e342\AndroidManifest.xml:6:5-44
MERGED from [com.google.firebase:firebase-analytics-impl:11.8.0] C:\Users\Subham Dhakal\.gradle\caches\transforms-1\files-1.1\firebase-analytics-impl-11.8.0.aar\421fbde92c0ce7ba413151c034924b58\AndroidManifest.xml:20:5-44
MERGED from [com.google.firebase:firebase-analytics-impl:11.8.0] C:\Users\Subham Dhakal\.gradle\caches\transforms-1\files-1.1\firebase-analytics-impl-11.8.0.aar\421fbde92c0ce7ba413151c034924b58\AndroidManifest.xml:20:5-44
MERGED from [com.google.firebase:firebase-iid:11.8.0] C:\Users\Subham Dhakal\.gradle\caches\transforms-1\files-1.1\firebase-iid-11.8.0.aar\2d6c944db1477ec781a36fc6f7298f7f\AndroidManifest.xml:20:5-44
MERGED from [com.google.firebase:firebase-iid:11.8.0] C:\Users\Subham Dhakal\.gradle\caches\transforms-1\files-1.1\firebase-iid-11.8.0.aar\2d6c944db1477ec781a36fc6f7298f7f\AndroidManifest.xml:20:5-44
MERGED from [com.google.firebase:firebase-common:11.8.0] C:\Users\Subham Dhakal\.gradle\caches\transforms-1\files-1.1\firebase-common-11.8.0.aar\27fa6a61d7a8d55490168f0173cd1300\AndroidManifest.xml:5:5-44
MERGED from [com.google.firebase:firebase-common:11.8.0] C:\Users\Subham Dhakal\.gradle\caches\transforms-1\files-1.1\firebase-common-11.8.0.aar\27fa6a61d7a8d55490168f0173cd1300\AndroidManifest.xml:5:5-44
MERGED from [com.google.android.gms:play-services-tasks:11.8.0] C:\Users\Subham Dhakal\.gradle\caches\transforms-1\files-1.1\play-services-tasks-11.8.0.aar\797f9df843bf6cddeacd52fce3b2828c\AndroidManifest.xml:5:5-44
MERGED from [com.google.android.gms:play-services-tasks:11.8.0] C:\Users\Subham Dhakal\.gradle\caches\transforms-1\files-1.1\play-services-tasks-11.8.0.aar\797f9df843bf6cddeacd52fce3b2828c\AndroidManifest.xml:5:5-44
MERGED from [com.google.android.gms:play-services-basement:11.8.0] C:\Users\Subham Dhakal\.gradle\caches\transforms-1\files-1.1\play-services-basement-11.8.0.aar\5694aacca733b9456abd60b2ceebcf0f\AndroidManifest.xml:20:5-44
MERGED from [com.google.android.gms:play-services-basement:11.8.0] C:\Users\Subham Dhakal\.gradle\caches\transforms-1\files-1.1\play-services-basement-11.8.0.aar\5694aacca733b9456abd60b2ceebcf0f\AndroidManifest.xml:20:5-44
MERGED from [com.android.support:support-v4:27.1.1] C:\Users\Subham Dhakal\.gradle\caches\transforms-1\files-1.1\support-v4-27.1.1.aar\399e1f97e3b24bb2aded81d45e940d01\AndroidManifest.xml:20:5-44
MERGED from [com.android.support:support-v4:27.1.1] C:\Users\Subham Dhakal\.gradle\caches\transforms-1\files-1.1\support-v4-27.1.1.aar\399e1f97e3b24bb2aded81d45e940d01\AndroidManifest.xml:20:5-44
MERGED from [com.android.support:support-fragment:27.1.1] C:\Users\Subham Dhakal\.gradle\caches\transforms-1\files-1.1\support-fragment-27.1.1.aar\10b726299c5861573822c63f4475a5a5\AndroidManifest.xml:20:5-44
MERGED from [com.android.support:support-fragment:27.1.1] C:\Users\Subham Dhakal\.gradle\caches\transforms-1\files-1.1\support-fragment-27.1.1.aar\10b726299c5861573822c63f4475a5a5\AndroidManifest.xml:20:5-44
MERGED from [com.android.support:animated-vector-drawable:27.1.1] C:\Users\Subham Dhakal\.gradle\caches\transforms-1\files-1.1\animated-vector-drawable-27.1.1.aar\2badb4070af0beb61090da230324d94d\AndroidManifest.xml:20:5-44
MERGED from [com.android.support:animated-vector-drawable:27.1.1] C:\Users\Subham Dhakal\.gradle\caches\transforms-1\files-1.1\animated-vector-drawable-27.1.1.aar\2badb4070af0beb61090da230324d94d\AndroidManifest.xml:20:5-44
MERGED from [com.android.support:recyclerview-v7:27.1.1] C:\Users\Subham Dhakal\.gradle\caches\transforms-1\files-1.1\recyclerview-v7-27.1.1.aar\9e8e38f130ccdb0308c8785f1a657e46\AndroidManifest.xml:20:5-44
MERGED from [com.android.support:recyclerview-v7:27.1.1] C:\Users\Subham Dhakal\.gradle\caches\transforms-1\files-1.1\recyclerview-v7-27.1.1.aar\9e8e38f130ccdb0308c8785f1a657e46\AndroidManifest.xml:20:5-44
MERGED from [com.android.support:support-core-ui:27.1.1] C:\Users\Subham Dhakal\.gradle\caches\transforms-1\files-1.1\support-core-ui-27.1.1.aar\39615d354953e793f3ca58c575f43949\AndroidManifest.xml:20:5-44
MERGED from [com.android.support:support-core-ui:27.1.1] C:\Users\Subham Dhakal\.gradle\caches\transforms-1\files-1.1\support-core-ui-27.1.1.aar\39615d354953e793f3ca58c575f43949\AndroidManifest.xml:20:5-44
MERGED from [com.android.support:support-core-utils:27.1.1] C:\Users\Subham Dhakal\.gradle\caches\transforms-1\files-1.1\support-core-utils-27.1.1.aar\9175db217ee71f649d0a98b0b51c6cbe\AndroidManifest.xml:20:5-44
MERGED from [com.android.support:support-core-utils:27.1.1] C:\Users\Subham Dhakal\.gradle\caches\transforms-1\files-1.1\support-core-utils-27.1.1.aar\9175db217ee71f649d0a98b0b51c6cbe\AndroidManifest.xml:20:5-44
MERGED from [com.android.support:support-vector-drawable:27.1.1] C:\Users\Subham Dhakal\.gradle\caches\transforms-1\files-1.1\support-vector-drawable-27.1.1.aar\8673684b089c74db1373d1e75b9932f0\AndroidManifest.xml:20:5-44
MERGED from [com.android.support:support-vector-drawable:27.1.1] C:\Users\Subham Dhakal\.gradle\caches\transforms-1\files-1.1\support-vector-drawable-27.1.1.aar\8673684b089c74db1373d1e75b9932f0\AndroidManifest.xml:20:5-44
MERGED from [com.android.support:transition:27.1.1] C:\Users\Subham Dhakal\.gradle\caches\transforms-1\files-1.1\transition-27.1.1.aar\652bd1796f48d9309d37584140206a84\AndroidManifest.xml:20:5-44
MERGED from [com.android.support:transition:27.1.1] C:\Users\Subham Dhakal\.gradle\caches\transforms-1\files-1.1\transition-27.1.1.aar\652bd1796f48d9309d37584140206a84\AndroidManifest.xml:20:5-44
MERGED from [com.android.support:support-media-compat:27.1.1] C:\Users\Subham Dhakal\.gradle\caches\transforms-1\files-1.1\support-media-compat-27.1.1.aar\b4ddbeeb38bc93b66f705e38f5d7e1f1\AndroidManifest.xml:20:5-44
MERGED from [com.android.support:support-media-compat:27.1.1] C:\Users\Subham Dhakal\.gradle\caches\transforms-1\files-1.1\support-media-compat-27.1.1.aar\b4ddbeeb38bc93b66f705e38f5d7e1f1\AndroidManifest.xml:20:5-44
MERGED from [com.android.support:support-compat:27.1.1] C:\Users\Subham Dhakal\.gradle\caches\transforms-1\files-1.1\support-compat-27.1.1.aar\0504d27c64573f326bf8442beb74712a\AndroidManifest.xml:20:5-44
MERGED from [com.android.support:support-compat:27.1.1] C:\Users\Subham Dhakal\.gradle\caches\transforms-1\files-1.1\support-compat-27.1.1.aar\0504d27c64573f326bf8442beb74712a\AndroidManifest.xml:20:5-44
MERGED from [com.google.firebase:firebase-database-license:11.8.0] C:\Users\Subham Dhakal\.gradle\caches\transforms-1\files-1.1\firebase-database-license-11.8.0.aar\34c565574449e8befc6fb6e5b1b48507\AndroidManifest.xml:4:5-43
MERGED from [com.google.firebase:firebase-database-license:11.8.0] C:\Users\Subham Dhakal\.gradle\caches\transforms-1\files-1.1\firebase-database-license-11.8.0.aar\34c565574449e8befc6fb6e5b1b48507\AndroidManifest.xml:4:5-43
MERGED from [com.google.firebase:firebase-analytics-license:11.8.0] C:\Users\Subham Dhakal\.gradle\caches\transforms-1\files-1.1\firebase-analytics-license-11.8.0.aar\8cfdc564edf0e8df2d46f8cfa6e1fe8f\AndroidManifest.xml:4:5-43
MERGED from [com.google.firebase:firebase-analytics-license:11.8.0] C:\Users\Subham Dhakal\.gradle\caches\transforms-1\files-1.1\firebase-analytics-license-11.8.0.aar\8cfdc564edf0e8df2d46f8cfa6e1fe8f\AndroidManifest.xml:4:5-43
MERGED from [android.arch.lifecycle:livedata-core:1.1.0] C:\Users\Subham Dhakal\.gradle\caches\transforms-1\files-1.1\livedata-core-1.1.0.aar\f9c02c63dc5559fd160894317a41cae2\AndroidManifest.xml:20:5-44
MERGED from [android.arch.lifecycle:livedata-core:1.1.0] C:\Users\Subham Dhakal\.gradle\caches\transforms-1\files-1.1\livedata-core-1.1.0.aar\f9c02c63dc5559fd160894317a41cae2\AndroidManifest.xml:20:5-44
MERGED from [android.arch.lifecycle:viewmodel:1.1.0] C:\Users\Subham Dhakal\.gradle\caches\transforms-1\files-1.1\viewmodel-1.1.0.aar\a226a9fc001c5aef238b4795b7a2701f\AndroidManifest.xml:20:5-44
MERGED from [android.arch.lifecycle:viewmodel:1.1.0] C:\Users\Subham Dhakal\.gradle\caches\transforms-1\files-1.1\viewmodel-1.1.0.aar\a226a9fc001c5aef238b4795b7a2701f\AndroidManifest.xml:20:5-44
MERGED from [com.google.firebase:firebase-database-connection-license:11.8.0] C:\Users\Subham Dhakal\.gradle\caches\transforms-1\files-1.1\firebase-database-connection-license-11.8.0.aar\664ba7c7f04c2c741b9f96225a7ce82d\AndroidManifest.xml:4:5-43
MERGED from [com.google.firebase:firebase-database-connection-license:11.8.0] C:\Users\Subham Dhakal\.gradle\caches\transforms-1\files-1.1\firebase-database-connection-license-11.8.0.aar\664ba7c7f04c2c741b9f96225a7ce82d\AndroidManifest.xml:4:5-43
MERGED from [com.google.android.gms:play-services-basement-license:11.8.0] C:\Users\Subham Dhakal\.gradle\caches\transforms-1\files-1.1\play-services-basement-license-11.8.0.aar\4a1b64a8deb471725f2dafc382a15849\AndroidManifest.xml:4:5-43
MERGED from [com.google.android.gms:play-services-basement-license:11.8.0] C:\Users\Subham Dhakal\.gradle\caches\transforms-1\files-1.1\play-services-basement-license-11.8.0.aar\4a1b64a8deb471725f2dafc382a15849\AndroidManifest.xml:4:5-43
MERGED from [com.google.firebase:firebase-common-license:11.8.0] C:\Users\Subham Dhakal\.gradle\caches\transforms-1\files-1.1\firebase-common-license-11.8.0.aar\e7c3dd48ef1fced372d78821ce0908c0\AndroidManifest.xml:4:5-43
MERGED from [com.google.firebase:firebase-common-license:11.8.0] C:\Users\Subham Dhakal\.gradle\caches\transforms-1\files-1.1\firebase-common-license-11.8.0.aar\e7c3dd48ef1fced372d78821ce0908c0\AndroidManifest.xml:4:5-43
MERGED from [com.google.android.gms:play-services-tasks-license:11.8.0] C:\Users\Subham Dhakal\.gradle\caches\transforms-1\files-1.1\play-services-tasks-license-11.8.0.aar\5713986533740705b1054783388f3463\AndroidManifest.xml:4:5-43
MERGED from [com.google.android.gms:play-services-tasks-license:11.8.0] C:\Users\Subham Dhakal\.gradle\caches\transforms-1\files-1.1\play-services-tasks-license-11.8.0.aar\5713986533740705b1054783388f3463\AndroidManifest.xml:4:5-43
MERGED from [com.google.firebase:firebase-analytics-impl-license:11.8.0] C:\Users\Subham Dhakal\.gradle\caches\transforms-1\files-1.1\firebase-analytics-impl-license-11.8.0.aar\9c9fa5fd7cfb440ecc2dd1eafed5d301\AndroidManifest.xml:4:5-43
MERGED from [com.google.firebase:firebase-analytics-impl-license:11.8.0] C:\Users\Subham Dhakal\.gradle\caches\transforms-1\files-1.1\firebase-analytics-impl-license-11.8.0.aar\9c9fa5fd7cfb440ecc2dd1eafed5d301\AndroidManifest.xml:4:5-43
MERGED from [android.arch.lifecycle:runtime:1.1.0] C:\Users\Subham Dhakal\.gradle\caches\transforms-1\files-1.1\runtime-1.1.0.aar\ab623993aef99a2b763f8e1c614511ae\AndroidManifest.xml:20:5-44
MERGED from [android.arch.lifecycle:runtime:1.1.0] C:\Users\Subham Dhakal\.gradle\caches\transforms-1\files-1.1\runtime-1.1.0.aar\ab623993aef99a2b763f8e1c614511ae\AndroidManifest.xml:20:5-44
MERGED from [android.arch.core:runtime:1.1.0] C:\Users\Subham Dhakal\.gradle\caches\transforms-1\files-1.1\runtime-1.1.0.aar\9b33067b06c41d4ca2d1c2b5f7829233\AndroidManifest.xml:20:5-44
MERGED from [android.arch.core:runtime:1.1.0] C:\Users\Subham Dhakal\.gradle\caches\transforms-1\files-1.1\runtime-1.1.0.aar\9b33067b06c41d4ca2d1c2b5f7829233\AndroidManifest.xml:20:5-44
MERGED from [com.google.firebase:firebase-iid-license:11.8.0] C:\Users\Subham Dhakal\.gradle\caches\transforms-1\files-1.1\firebase-iid-license-11.8.0.aar\e05eb780b86ac56838b728c7709444a8\AndroidManifest.xml:4:5-43
MERGED from [com.google.firebase:firebase-iid-license:11.8.0] C:\Users\Subham Dhakal\.gradle\caches\transforms-1\files-1.1\firebase-iid-license-11.8.0.aar\e05eb780b86ac56838b728c7709444a8\AndroidManifest.xml:4:5-43
INJECTED from D:\Eavesdrop\app\src\main\AndroidManifest.xml
INJECTED from D:\Eavesdrop\app\src\main\AndroidManifest.xml
	android:targetSdkVersion
		INJECTED from D:\Eavesdrop\app\src\main\AndroidManifest.xml
		ADDED from D:\Eavesdrop\app\src\main\AndroidManifest.xml
		INJECTED from D:\Eavesdrop\app\src\main\AndroidManifest.xml
	android:minSdkVersion
		INJECTED from D:\Eavesdrop\app\src\main\AndroidManifest.xml
		ADDED from D:\Eavesdrop\app\src\main\AndroidManifest.xml
		INJECTED from D:\Eavesdrop\app\src\main\AndroidManifest.xml
uses-permission#android.permission.ACCESS_NETWORK_STATE
ADDED from [com.google.firebase:firebase-analytics:11.8.0] C:\Users\Subham Dhakal\.gradle\caches\transforms-1\files-1.1\firebase-analytics-11.8.0.aar\7238fdbab610633a3769941525f02b6c\AndroidManifest.xml:24:5-79
MERGED from [com.google.firebase:firebase-analytics-impl:11.8.0] C:\Users\Subham Dhakal\.gradle\caches\transforms-1\files-1.1\firebase-analytics-impl-11.8.0.aar\421fbde92c0ce7ba413151c034924b58\AndroidManifest.xml:24:5-79
MERGED from [com.google.firebase:firebase-analytics-impl:11.8.0] C:\Users\Subham Dhakal\.gradle\caches\transforms-1\files-1.1\firebase-analytics-impl-11.8.0.aar\421fbde92c0ce7ba413151c034924b58\AndroidManifest.xml:24:5-79
MERGED from [com.google.firebase:firebase-iid:11.8.0] C:\Users\Subham Dhakal\.gradle\caches\transforms-1\files-1.1\firebase-iid-11.8.0.aar\2d6c944db1477ec781a36fc6f7298f7f\AndroidManifest.xml:22:5-79
MERGED from [com.google.firebase:firebase-iid:11.8.0] C:\Users\Subham Dhakal\.gradle\caches\transforms-1\files-1.1\firebase-iid-11.8.0.aar\2d6c944db1477ec781a36fc6f7298f7f\AndroidManifest.xml:22:5-79
	android:name
		ADDED from [com.google.firebase:firebase-analytics:11.8.0] C:\Users\Subham Dhakal\.gradle\caches\transforms-1\files-1.1\firebase-analytics-11.8.0.aar\7238fdbab610633a3769941525f02b6c\AndroidManifest.xml:24:22-76
uses-permission#android.permission.WAKE_LOCK
ADDED from [com.google.firebase:firebase-analytics:11.8.0] C:\Users\Subham Dhakal\.gradle\caches\transforms-1\files-1.1\firebase-analytics-11.8.0.aar\7238fdbab610633a3769941525f02b6c\AndroidManifest.xml:25:5-68
MERGED from [com.google.firebase:firebase-analytics-impl:11.8.0] C:\Users\Subham Dhakal\.gradle\caches\transforms-1\files-1.1\firebase-analytics-impl-11.8.0.aar\421fbde92c0ce7ba413151c034924b58\AndroidManifest.xml:25:5-68
MERGED from [com.google.firebase:firebase-analytics-impl:11.8.0] C:\Users\Subham Dhakal\.gradle\caches\transforms-1\files-1.1\firebase-analytics-impl-11.8.0.aar\421fbde92c0ce7ba413151c034924b58\AndroidManifest.xml:25:5-68
MERGED from [com.google.firebase:firebase-iid:11.8.0] C:\Users\Subham Dhakal\.gradle\caches\transforms-1\files-1.1\firebase-iid-11.8.0.aar\2d6c944db1477ec781a36fc6f7298f7f\AndroidManifest.xml:24:5-68
MERGED from [com.google.firebase:firebase-iid:11.8.0] C:\Users\Subham Dhakal\.gradle\caches\transforms-1\files-1.1\firebase-iid-11.8.0.aar\2d6c944db1477ec781a36fc6f7298f7f\AndroidManifest.xml:24:5-68
	android:name
		ADDED from [com.google.firebase:firebase-analytics:11.8.0] C:\Users\Subham Dhakal\.gradle\caches\transforms-1\files-1.1\firebase-analytics-11.8.0.aar\7238fdbab610633a3769941525f02b6c\AndroidManifest.xml:25:22-65
receiver#com.google.android.gms.measurement.AppMeasurementReceiver
ADDED from [com.google.firebase:firebase-analytics:11.8.0] C:\Users\Subham Dhakal\.gradle\caches\transforms-1\files-1.1\firebase-analytics-11.8.0.aar\7238fdbab610633a3769941525f02b6c\AndroidManifest.xml:28:9-32:20
MERGED from [com.google.firebase:firebase-analytics-impl:11.8.0] C:\Users\Subham Dhakal\.gradle\caches\transforms-1\files-1.1\firebase-analytics-impl-11.8.0.aar\421fbde92c0ce7ba413151c034924b58\AndroidManifest.xml:28:9-32:20
MERGED from [com.google.firebase:firebase-analytics-impl:11.8.0] C:\Users\Subham Dhakal\.gradle\caches\transforms-1\files-1.1\firebase-analytics-impl-11.8.0.aar\421fbde92c0ce7ba413151c034924b58\AndroidManifest.xml:28:9-32:20
	android:enabled
		ADDED from [com.google.firebase:firebase-analytics:11.8.0] C:\Users\Subham Dhakal\.gradle\caches\transforms-1\files-1.1\firebase-analytics-11.8.0.aar\7238fdbab610633a3769941525f02b6c\AndroidManifest.xml:30:13-35
	android:exported
		ADDED from [com.google.firebase:firebase-analytics:11.8.0] C:\Users\Subham Dhakal\.gradle\caches\transforms-1\files-1.1\firebase-analytics-11.8.0.aar\7238fdbab610633a3769941525f02b6c\AndroidManifest.xml:31:13-37
	android:name
		ADDED from [com.google.firebase:firebase-analytics:11.8.0] C:\Users\Subham Dhakal\.gradle\caches\transforms-1\files-1.1\firebase-analytics-11.8.0.aar\7238fdbab610633a3769941525f02b6c\AndroidManifest.xml:29:13-85
receiver#com.google.android.gms.measurement.AppMeasurementInstallReferrerReceiver
ADDED from [com.google.firebase:firebase-analytics:11.8.0] C:\Users\Subham Dhakal\.gradle\caches\transforms-1\files-1.1\firebase-analytics-11.8.0.aar\7238fdbab610633a3769941525f02b6c\AndroidManifest.xml:33:9-41:20
	android:enabled
		ADDED from [com.google.firebase:firebase-analytics:11.8.0] C:\Users\Subham Dhakal\.gradle\caches\transforms-1\files-1.1\firebase-analytics-11.8.0.aar\7238fdbab610633a3769941525f02b6c\AndroidManifest.xml:35:13-35
	android:exported
		ADDED from [com.google.firebase:firebase-analytics:11.8.0] C:\Users\Subham Dhakal\.gradle\caches\transforms-1\files-1.1\firebase-analytics-11.8.0.aar\7238fdbab610633a3769941525f02b6c\AndroidManifest.xml:36:13-36
	android:permission
		ADDED from [com.google.firebase:firebase-analytics:11.8.0] C:\Users\Subham Dhakal\.gradle\caches\transforms-1\files-1.1\firebase-analytics-11.8.0.aar\7238fdbab610633a3769941525f02b6c\AndroidManifest.xml:37:13-69
	android:name
		ADDED from [com.google.firebase:firebase-analytics:11.8.0] C:\Users\Subham Dhakal\.gradle\caches\transforms-1\files-1.1\firebase-analytics-11.8.0.aar\7238fdbab610633a3769941525f02b6c\AndroidManifest.xml:34:13-100
intent-filter#action:name:com.android.vending.INSTALL_REFERRER
ADDED from [com.google.firebase:firebase-analytics:11.8.0] C:\Users\Subham Dhakal\.gradle\caches\transforms-1\files-1.1\firebase-analytics-11.8.0.aar\7238fdbab610633a3769941525f02b6c\AndroidManifest.xml:38:13-40:29
action#com.android.vending.INSTALL_REFERRER
ADDED from [com.google.firebase:firebase-analytics:11.8.0] C:\Users\Subham Dhakal\.gradle\caches\transforms-1\files-1.1\firebase-analytics-11.8.0.aar\7238fdbab610633a3769941525f02b6c\AndroidManifest.xml:39:17-79
	android:name
		ADDED from [com.google.firebase:firebase-analytics:11.8.0] C:\Users\Subham Dhakal\.gradle\caches\transforms-1\files-1.1\firebase-analytics-11.8.0.aar\7238fdbab610633a3769941525f02b6c\AndroidManifest.xml:39:25-76
service#com.google.android.gms.measurement.AppMeasurementService
ADDED from [com.google.firebase:firebase-analytics:11.8.0] C:\Users\Subham Dhakal\.gradle\caches\transforms-1\files-1.1\firebase-analytics-11.8.0.aar\7238fdbab610633a3769941525f02b6c\AndroidManifest.xml:43:9-46:40
MERGED from [com.google.firebase:firebase-analytics-impl:11.8.0] C:\Users\Subham Dhakal\.gradle\caches\transforms-1\files-1.1\firebase-analytics-impl-11.8.0.aar\421fbde92c0ce7ba413151c034924b58\AndroidManifest.xml:34:9-37:40
MERGED from [com.google.firebase:firebase-analytics-impl:11.8.0] C:\Users\Subham Dhakal\.gradle\caches\transforms-1\files-1.1\firebase-analytics-impl-11.8.0.aar\421fbde92c0ce7ba413151c034924b58\AndroidManifest.xml:34:9-37:40
	android:enabled
		ADDED from [com.google.firebase:firebase-analytics:11.8.0] C:\Users\Subham Dhakal\.gradle\caches\transforms-1\files-1.1\firebase-analytics-11.8.0.aar\7238fdbab610633a3769941525f02b6c\AndroidManifest.xml:45:13-35
	android:exported
		ADDED from [com.google.firebase:firebase-analytics:11.8.0] C:\Users\Subham Dhakal\.gradle\caches\transforms-1\files-1.1\firebase-analytics-11.8.0.aar\7238fdbab610633a3769941525f02b6c\AndroidManifest.xml:46:13-37
	android:name
		ADDED from [com.google.firebase:firebase-analytics:11.8.0] C:\Users\Subham Dhakal\.gradle\caches\transforms-1\files-1.1\firebase-analytics-11.8.0.aar\7238fdbab610633a3769941525f02b6c\AndroidManifest.xml:44:13-84
service#com.google.android.gms.measurement.AppMeasurementJobService
ADDED from [com.google.firebase:firebase-analytics:11.8.0] C:\Users\Subham Dhakal\.gradle\caches\transforms-1\files-1.1\firebase-analytics-11.8.0.aar\7238fdbab610633a3769941525f02b6c\AndroidManifest.xml:47:9-51:72
	android:enabled
		ADDED from [com.google.firebase:firebase-analytics:11.8.0] C:\Users\Subham Dhakal\.gradle\caches\transforms-1\files-1.1\firebase-analytics-11.8.0.aar\7238fdbab610633a3769941525f02b6c\AndroidManifest.xml:49:13-35
	android:exported
		ADDED from [com.google.firebase:firebase-analytics:11.8.0] C:\Users\Subham Dhakal\.gradle\caches\transforms-1\files-1.1\firebase-analytics-11.8.0.aar\7238fdbab610633a3769941525f02b6c\AndroidManifest.xml:50:13-37
	android:permission
		ADDED from [com.google.firebase:firebase-analytics:11.8.0] C:\Users\Subham Dhakal\.gradle\caches\transforms-1\files-1.1\firebase-analytics-11.8.0.aar\7238fdbab610633a3769941525f02b6c\AndroidManifest.xml:51:13-69
	android:name
		ADDED from [com.google.firebase:firebase-analytics:11.8.0] C:\Users\Subham Dhakal\.gradle\caches\transforms-1\files-1.1\firebase-analytics-11.8.0.aar\7238fdbab610633a3769941525f02b6c\AndroidManifest.xml:48:13-87
uses-permission#com.google.android.c2dm.permission.RECEIVE
ADDED from [com.google.firebase:firebase-iid:11.8.0] C:\Users\Subham Dhakal\.gradle\caches\transforms-1\files-1.1\firebase-iid-11.8.0.aar\2d6c944db1477ec781a36fc6f7298f7f\AndroidManifest.xml:26:5-82
	android:name
		ADDED from [com.google.firebase:firebase-iid:11.8.0] C:\Users\Subham Dhakal\.gradle\caches\transforms-1\files-1.1\firebase-iid-11.8.0.aar\2d6c944db1477ec781a36fc6f7298f7f\AndroidManifest.xml:26:22-79
permission#${applicationId}.permission.C2D_MESSAGE
ADDED from [com.google.firebase:firebase-iid:11.8.0] C:\Users\Subham Dhakal\.gradle\caches\transforms-1\files-1.1\firebase-iid-11.8.0.aar\2d6c944db1477ec781a36fc6f7298f7f\AndroidManifest.xml:28:5-30:47
	android:protectionLevel
		ADDED from [com.google.firebase:firebase-iid:11.8.0] C:\Users\Subham Dhakal\.gradle\caches\transforms-1\files-1.1\firebase-iid-11.8.0.aar\2d6c944db1477ec781a36fc6f7298f7f\AndroidManifest.xml:30:9-44
	android:name
		ADDED from [com.google.firebase:firebase-iid:11.8.0] C:\Users\Subham Dhakal\.gradle\caches\transforms-1\files-1.1\firebase-iid-11.8.0.aar\2d6c944db1477ec781a36fc6f7298f7f\AndroidManifest.xml:29:9-63
permission#com.example.subhamdhakal.eavesdrop.permission.C2D_MESSAGE
ADDED from [com.google.firebase:firebase-iid:11.8.0] C:\Users\Subham Dhakal\.gradle\caches\transforms-1\files-1.1\firebase-iid-11.8.0.aar\2d6c944db1477ec781a36fc6f7298f7f\AndroidManifest.xml:28:5-30:47
	android:protectionLevel
		ADDED from [com.google.firebase:firebase-iid:11.8.0] C:\Users\Subham Dhakal\.gradle\caches\transforms-1\files-1.1\firebase-iid-11.8.0.aar\2d6c944db1477ec781a36fc6f7298f7f\AndroidManifest.xml:30:9-44
	android:name
		ADDED from [com.google.firebase:firebase-iid:11.8.0] C:\Users\Subham Dhakal\.gradle\caches\transforms-1\files-1.1\firebase-iid-11.8.0.aar\2d6c944db1477ec781a36fc6f7298f7f\AndroidManifest.xml:29:9-63
uses-permission#${applicationId}.permission.C2D_MESSAGE
ADDED from [com.google.firebase:firebase-iid:11.8.0] C:\Users\Subham Dhakal\.gradle\caches\transforms-1\files-1.1\firebase-iid-11.8.0.aar\2d6c944db1477ec781a36fc6f7298f7f\AndroidManifest.xml:32:5-79
	android:name
		ADDED from [com.google.firebase:firebase-iid:11.8.0] C:\Users\Subham Dhakal\.gradle\caches\transforms-1\files-1.1\firebase-iid-11.8.0.aar\2d6c944db1477ec781a36fc6f7298f7f\AndroidManifest.xml:32:22-76
uses-permission#com.example.subhamdhakal.eavesdrop.permission.C2D_MESSAGE
ADDED from [com.google.firebase:firebase-iid:11.8.0] C:\Users\Subham Dhakal\.gradle\caches\transforms-1\files-1.1\firebase-iid-11.8.0.aar\2d6c944db1477ec781a36fc6f7298f7f\AndroidManifest.xml:32:5-79
	android:name
		ADDED from [com.google.firebase:firebase-iid:11.8.0] C:\Users\Subham Dhakal\.gradle\caches\transforms-1\files-1.1\firebase-iid-11.8.0.aar\2d6c944db1477ec781a36fc6f7298f7f\AndroidManifest.xml:32:22-76
receiver#com.google.firebase.iid.FirebaseInstanceIdReceiver
ADDED from [com.google.firebase:firebase-iid:11.8.0] C:\Users\Subham Dhakal\.gradle\caches\transforms-1\files-1.1\firebase-iid-11.8.0.aar\2d6c944db1477ec781a36fc6f7298f7f\AndroidManifest.xml:35:9-44:20
	android:exported
		ADDED from [com.google.firebase:firebase-iid:11.8.0] C:\Users\Subham Dhakal\.gradle\caches\transforms-1\files-1.1\firebase-iid-11.8.0.aar\2d6c944db1477ec781a36fc6f7298f7f\AndroidManifest.xml:37:13-36
	android:permission
		ADDED from [com.google.firebase:firebase-iid:11.8.0] C:\Users\Subham Dhakal\.gradle\caches\transforms-1\files-1.1\firebase-iid-11.8.0.aar\2d6c944db1477ec781a36fc6f7298f7f\AndroidManifest.xml:38:13-73
	android:name
		ADDED from [com.google.firebase:firebase-iid:11.8.0] C:\Users\Subham Dhakal\.gradle\caches\transforms-1\files-1.1\firebase-iid-11.8.0.aar\2d6c944db1477ec781a36fc6f7298f7f\AndroidManifest.xml:36:13-78
intent-filter#action:name:com.google.android.c2dm.intent.RECEIVE+category:name:${applicationId}
ADDED from [com.google.firebase:firebase-iid:11.8.0] C:\Users\Subham Dhakal\.gradle\caches\transforms-1\files-1.1\firebase-iid-11.8.0.aar\2d6c944db1477ec781a36fc6f7298f7f\AndroidManifest.xml:39:13-43:29
intent-filter#action:name:com.google.android.c2dm.intent.RECEIVE+category:name:com.example.subhamdhakal.eavesdrop
ADDED from [com.google.firebase:firebase-iid:11.8.0] C:\Users\Subham Dhakal\.gradle\caches\transforms-1\files-1.1\firebase-iid-11.8.0.aar\2d6c944db1477ec781a36fc6f7298f7f\AndroidManifest.xml:39:13-43:29
action#com.google.android.c2dm.intent.RECEIVE
ADDED from [com.google.firebase:firebase-iid:11.8.0] C:\Users\Subham Dhakal\.gradle\caches\transforms-1\files-1.1\firebase-iid-11.8.0.aar\2d6c944db1477ec781a36fc6f7298f7f\AndroidManifest.xml:40:17-81
	android:name
		ADDED from [com.google.firebase:firebase-iid:11.8.0] C:\Users\Subham Dhakal\.gradle\caches\transforms-1\files-1.1\firebase-iid-11.8.0.aar\2d6c944db1477ec781a36fc6f7298f7f\AndroidManifest.xml:40:25-78
category#${applicationId}
ADDED from [com.google.firebase:firebase-iid:11.8.0] C:\Users\Subham Dhakal\.gradle\caches\transforms-1\files-1.1\firebase-iid-11.8.0.aar\2d6c944db1477ec781a36fc6f7298f7f\AndroidManifest.xml:42:17-61
	android:name
		ADDED from [com.google.firebase:firebase-iid:11.8.0] C:\Users\Subham Dhakal\.gradle\caches\transforms-1\files-1.1\firebase-iid-11.8.0.aar\2d6c944db1477ec781a36fc6f7298f7f\AndroidManifest.xml:42:27-58
category#com.example.subhamdhakal.eavesdrop
ADDED from [com.google.firebase:firebase-iid:11.8.0] C:\Users\Subham Dhakal\.gradle\caches\transforms-1\files-1.1\firebase-iid-11.8.0.aar\2d6c944db1477ec781a36fc6f7298f7f\AndroidManifest.xml:42:17-61
	android:name
		ADDED from [com.google.firebase:firebase-iid:11.8.0] C:\Users\Subham Dhakal\.gradle\caches\transforms-1\files-1.1\firebase-iid-11.8.0.aar\2d6c944db1477ec781a36fc6f7298f7f\AndroidManifest.xml:42:27-58
service#com.google.firebase.iid.FirebaseInstanceIdService
ADDED from [com.google.firebase:firebase-iid:11.8.0] C:\Users\Subham Dhakal\.gradle\caches\transforms-1\files-1.1\firebase-iid-11.8.0.aar\2d6c944db1477ec781a36fc6f7298f7f\AndroidManifest.xml:50:9-56:19
	android:exported
		ADDED from [com.google.firebase:firebase-iid:11.8.0] C:\Users\Subham Dhakal\.gradle\caches\transforms-1\files-1.1\firebase-iid-11.8.0.aar\2d6c944db1477ec781a36fc6f7298f7f\AndroidManifest.xml:52:13-36
	android:name
		ADDED from [com.google.firebase:firebase-iid:11.8.0] C:\Users\Subham Dhakal\.gradle\caches\transforms-1\files-1.1\firebase-iid-11.8.0.aar\2d6c944db1477ec781a36fc6f7298f7f\AndroidManifest.xml:51:13-77
intent-filter#action:name:com.google.firebase.INSTANCE_ID_EVENT
ADDED from [com.google.firebase:firebase-iid:11.8.0] C:\Users\Subham Dhakal\.gradle\caches\transforms-1\files-1.1\firebase-iid-11.8.0.aar\2d6c944db1477ec781a36fc6f7298f7f\AndroidManifest.xml:53:13-55:29
	android:priority
		ADDED from [com.google.firebase:firebase-iid:11.8.0] C:\Users\Subham Dhakal\.gradle\caches\transforms-1\files-1.1\firebase-iid-11.8.0.aar\2d6c944db1477ec781a36fc6f7298f7f\AndroidManifest.xml:53:28-51
action#com.google.firebase.INSTANCE_ID_EVENT
ADDED from [com.google.firebase:firebase-iid:11.8.0] C:\Users\Subham Dhakal\.gradle\caches\transforms-1\files-1.1\firebase-iid-11.8.0.aar\2d6c944db1477ec781a36fc6f7298f7f\AndroidManifest.xml:54:17-80
	android:name
		ADDED from [com.google.firebase:firebase-iid:11.8.0] C:\Users\Subham Dhakal\.gradle\caches\transforms-1\files-1.1\firebase-iid-11.8.0.aar\2d6c944db1477ec781a36fc6f7298f7f\AndroidManifest.xml:54:25-77
provider#com.google.firebase.provider.FirebaseInitProvider
ADDED from [com.google.firebase:firebase-common:11.8.0] C:\Users\Subham Dhakal\.gradle\caches\transforms-1\files-1.1\firebase-common-11.8.0.aar\27fa6a61d7a8d55490168f0173cd1300\AndroidManifest.xml:8:9-12:39
	android:authorities
		ADDED from [com.google.firebase:firebase-common:11.8.0] C:\Users\Subham Dhakal\.gradle\caches\transforms-1\files-1.1\firebase-common-11.8.0.aar\27fa6a61d7a8d55490168f0173cd1300\AndroidManifest.xml:10:13-72
	android:exported
		ADDED from [com.google.firebase:firebase-common:11.8.0] C:\Users\Subham Dhakal\.gradle\caches\transforms-1\files-1.1\firebase-common-11.8.0.aar\27fa6a61d7a8d55490168f0173cd1300\AndroidManifest.xml:11:13-37
	android:initOrder
		ADDED from [com.google.firebase:firebase-common:11.8.0] C:\Users\Subham Dhakal\.gradle\caches\transforms-1\files-1.1\firebase-common-11.8.0.aar\27fa6a61d7a8d55490168f0173cd1300\AndroidManifest.xml:12:13-36
	android:name
		ADDED from [com.google.firebase:firebase-common:11.8.0] C:\Users\Subham Dhakal\.gradle\caches\transforms-1\files-1.1\firebase-common-11.8.0.aar\27fa6a61d7a8d55490168f0173cd1300\AndroidManifest.xml:9:13-77
meta-data#com.google.android.gms.version
ADDED from [com.google.android.gms:play-services-basement:11.8.0] C:\Users\Subham Dhakal\.gradle\caches\transforms-1\files-1.1\play-services-basement-11.8.0.aar\5694aacca733b9456abd60b2ceebcf0f\AndroidManifest.xml:23:9-25:69
	android:value
		ADDED from [com.google.android.gms:play-services-basement:11.8.0] C:\Users\Subham Dhakal\.gradle\caches\transforms-1\files-1.1\play-services-basement-11.8.0.aar\5694aacca733b9456abd60b2ceebcf0f\AndroidManifest.xml:25:13-66
	android:name
		ADDED from [com.google.android.gms:play-services-basement:11.8.0] C:\Users\Subham Dhakal\.gradle\caches\transforms-1\files-1.1\play-services-basement-11.8.0.aar\5694aacca733b9456abd60b2ceebcf0f\AndroidManifest.xml:24:13-58
